Reading Files in R
…
- If data isn't clean, may need to read it in and clean it before converting to the data type you want
- The `type_convert()` function is like the `col_types` argument in `read_*` but is used after the file is read into environment
- Process:
  + Read in data as character vector
  + Cleaning/munging manually to remove extra characters / NAs / etc.
  + `type_convert()` to convert to column types you want (or let it guess)
  
- Ex) Want to split time into time + morning/night column, convert time to numeric:

```r
read_csv('Ames_weather_2017_2018.csv', col_types='ccccccc')
```

```
## # A tibble: 2,976 x 7
##    date     time     icon  wind  temp_low temp_high weather        
##    <chr>    <chr>    <chr> <chr> <chr>    <chr>     <chr>          
##  1 1/1/2017 12:00 AM 13    6     19       21        Clear.         
##  2 1/1/2017 6:00 AM  6     7     19       34        Partly sunny.  
##  3 1/1/2017 12:00 PM 6     7     36       37        Partly sunny.  
##  4 1/1/2017 6:00 PM  17    11    36       36        Overcast.      
##  5 1/2/2017 12:00 AM 17    11    34       36        Overcast.      
##  6 1/2/2017 6:00 AM  18    9     34       36        Drizzle. Fog.  
##  7 1/2/2017 12:00 PM 18    7     36       37        Drizzle. Fog.  
##  8 1/2/2017 6:00 PM  14    6     36       37        Passing clouds.
##  9 1/3/2017 12:00 AM 17    13    34       36        Overcast.      
## 10 1/3/2017 6:00 AM  7     21    21       32        Overcast.      
## # ... with 2,966 more rows
```
…
# URLs work too
- Previous example was only for a file downloaded locally
- If the file is located at a url instead, can pass the url directly to your `read_*`
- Now, `read_csv()` downloads a temp file of ages of different members of Congress:

```r
read_csv("https://raw.githubusercontent.com/fivethirtyeight/data/master/congress-age/congress-terms.csv", col_types = cols())
```

```
## # A tibble: 18,635 x 13
##    congress chamber bioguide firstname middlename lastname suffix birthday  
##       <dbl> <chr>   <chr>    <chr>     <chr>      <chr>    <chr>  <date>    
##  1       80 house   M000112  Joseph    Jefferson  Mansfie~ <NA>   1861-02-09
##  2       80 house   D000448  Robert    Lee        Doughton <NA>   1863-11-07
##  3       80 house   S000001  Adolph    Joachim    Sabath   <NA>   1866-04-04
##  4       80 house   E000023  Charles   Aubrey     Eaton    <NA>   1868-03-29
##  5       80 house   L000296  William   <NA>       Lewis    <NA>   1868-09-22
##  6       80 house   G000017  James     A.         Gallagh~ <NA>   1869-01-16
##  7       80 house   W000265  Richard   Joseph     Welch    <NA>   1869-02-13
##  8       80 house   B000565  Sol       <NA>       Bloom    <NA>   1870-03-09
##  9       80 house   H000943  Merlin    <NA>       Hull     <NA>   1870-12-18
## 10       80 house   G000169  Charles   Laceille   Gifford  <NA>   1871-03-15
## # ... with 18,625 more rows, and 5 more variables: state <chr>, party <chr>,
## #   incumbent <chr>, termstart <date>, age <dbl>
```
…
---
# Reading from Excel Example
- You can skip the first few lines with the `skip` argument and only read in the data:

```r
readxl::read_xlsx('18collegebasketball.xlsx', skip = 2)
```

```
## # A tibble: 5,909 x 6
##        gameid home      homescore away           awayscore date               
##         <dbl> <chr>         <dbl> <chr>              <dbl> <dttm>             
##  1  201811061 Kansas           92 Michigan State        87 2018-11-06 00:00:00
##  2  201811062 Kentucky         84 Duke                 118 2018-11-06 00:00:00
##  3  201811063 Gonzaga         120 Idaho State           79 2018-11-06 00:00:00
##  4  201811064 Virginia         73 Towson                42 2018-11-06 00:00:00
##  5  201811065 Tennessee        86 Lenoir-Rhyne          41 2018-11-06 00:00:00
##  6  201811066 Nevada           86 Brigham Young         70 2018-11-06 00:00:00
##  7  201811067 Wofford          67 North Carolina        78 2018-11-06 00:00:00
##  8  201811068 Villanova       100 Morgan State          77 2018-11-06 00:00:00
##  9  201811069 Auburn          101 South Alabama         58 2018-11-06 00:00:00
## 10 2018110610 Oregon           84 Portland State        57 2018-11-06 00:00:00
## # ... with 5,899 more rows
```
…
